{
    "id": "{036FBDE2-9FA3-45F0-8011-1DF98BE83169}",
    "name": "Arduino Board Bridge",
    "type": 2,
    "vendor": "Dominik Kus",
    "aliases":
    [
        "Arduino Board Bridge"
    ],  
    "parentRequirements": 
	[
		"{79827379-F36E-4ADA-8A95-5F8D1DC92FA9}"
	],
    "childRequirements": 
	[
		"{1AC1E683-DE42-409B-818B-E13CC5B25D03}"
	],
    "implemented": 
	[
		"{018EF6B5-AB94-40C6-AA53-46943E824ACF}",
		"{2858C391-4561-4102-960D-F41FEA8B817D}"
	],
    "prefix": "ASB"
}